<?xml version="1.0" encoding="UTF-8" standalone="no"?>
<!DOCTYPE svg PUBLIC "-//W3C//DTD SVG 1.1//EN"
 "http://www.w3.org/Graphics/SVG/1.1/DTD/svg11.dtd">
<!-- Generated by graphviz version 2.38.0 (20140413.2041)
 -->
<!-- Title: G Pages: 1 -->
<svg width="506pt" height="796pt"
 viewBox="0.00 0.00 506.18 796.00" xmlns="http://www.w3.org/2000/svg" xmlns:xlink="http://www.w3.org/1999/xlink">
<g id="graph0" class="graph" transform="scale(1 1) rotate(0) translate(4 792)">
<title>G</title>
<polygon fill="white" stroke="none" points="-4,4 -4,-792 502.178,-792 502.178,4 -4,4"/>
<g id="clust1" class="cluster"><title>cluster_Global</title>
<path fill="none" stroke="gray" d="M38.0888,-44C38.0888,-44 478.178,-44 478.178,-44 484.178,-44 490.178,-50 490.178,-56 490.178,-56 490.178,-768 490.178,-768 490.178,-774 484.178,-780 478.178,-780 478.178,-780 38.0888,-780 38.0888,-780 32.0888,-780 26.0888,-774 26.0888,-768 26.0888,-768 26.0888,-56 26.0888,-56 26.0888,-50 32.0888,-44 38.0888,-44"/>
<text text-anchor="middle" x="258.133" y="-767.2" font-family="Times New Roman,serif" font-size="11.00" fill="gray">Global</text>
</g>
<g id="clust2" class="cluster"><title>cluster_\NO</title>
<path fill="none" stroke="gray" d="M46.0888,-52C46.0888,-52 470.178,-52 470.178,-52 476.178,-52 482.178,-58 482.178,-64 482.178,-64 482.178,-740 482.178,-740 482.178,-746 476.178,-752 470.178,-752 470.178,-752 46.0888,-752 46.0888,-752 40.0888,-752 34.0888,-746 34.0888,-740 34.0888,-740 34.0888,-64 34.0888,-64 34.0888,-58 40.0888,-52 46.0888,-52"/>
<text text-anchor="middle" x="258.133" y="-739.2" font-family="Times New Roman,serif" font-size="11.00" fill="gray">NO</text>
</g>
<g id="clust3" class="cluster"><title>cluster_\NO\NTNU</title>
<path fill="none" stroke="gray" d="M54.0888,-60C54.0888,-60 462.178,-60 462.178,-60 468.178,-60 474.178,-66 474.178,-72 474.178,-72 474.178,-712 474.178,-712 474.178,-718 468.178,-724 462.178,-724 462.178,-724 54.0888,-724 54.0888,-724 48.0888,-724 42.0888,-718 42.0888,-712 42.0888,-712 42.0888,-72 42.0888,-72 42.0888,-66 48.0888,-60 54.0888,-60"/>
<text text-anchor="middle" x="258.133" y="-711.2" font-family="Times New Roman,serif" font-size="11.00" fill="gray">NTNU</text>
</g>
<g id="clust4" class="cluster"><title>cluster_\NO\NTNU\IMT2571</title>
<path fill="none" stroke="gray" d="M62.0888,-68C62.0888,-68 454.178,-68 454.178,-68 460.178,-68 466.178,-74 466.178,-80 466.178,-80 466.178,-684 466.178,-684 466.178,-690 460.178,-696 454.178,-696 454.178,-696 62.0888,-696 62.0888,-696 56.0888,-696 50.0888,-690 50.0888,-684 50.0888,-684 50.0888,-80 50.0888,-80 50.0888,-74 56.0888,-68 62.0888,-68"/>
<text text-anchor="middle" x="258.133" y="-683.2" font-family="Times New Roman,serif" font-size="11.00" fill="gray">IMT2571</text>
</g>
<g id="clust5" class="cluster"><title>cluster_\NO\NTNU\IMT2571\Assignment1</title>
<path fill="none" stroke="gray" d="M70.0888,-76C70.0888,-76 446.178,-76 446.178,-76 452.178,-76 458.178,-82 458.178,-88 458.178,-88 458.178,-656 458.178,-656 458.178,-662 452.178,-668 446.178,-668 446.178,-668 70.0888,-668 70.0888,-668 64.0888,-668 58.0888,-662 58.0888,-656 58.0888,-656 58.0888,-88 58.0888,-88 58.0888,-82 64.0888,-76 70.0888,-76"/>
<text text-anchor="middle" x="258.133" y="-655.2" font-family="Times New Roman,serif" font-size="11.00" fill="gray">Assignment1</text>
</g>
<g id="clust6" class="cluster"><title>cluster_\NO\NTNU\IMT2571\Assignment1\Model</title>
<path fill="none" stroke="gray" d="M78.0888,-406C78.0888,-406 424.678,-406 424.678,-406 430.678,-406 436.678,-412 436.678,-418 436.678,-418 436.678,-628 436.678,-628 436.678,-634 430.678,-640 424.678,-640 424.678,-640 78.0888,-640 78.0888,-640 72.0888,-640 66.0888,-634 66.0888,-628 66.0888,-628 66.0888,-418 66.0888,-418 66.0888,-412 72.0888,-406 78.0888,-406"/>
<text text-anchor="middle" x="251.383" y="-627.2" font-family="Times New Roman,serif" font-size="11.00" fill="gray">Model</text>
</g>
<g id="clust7" class="cluster"><title>cluster_\NO\NTNU\IMT2571\Assignment1\Controller</title>
<path fill="none" stroke="gray" d="M328.178,-84C328.178,-84 438.178,-84 438.178,-84 444.178,-84 450.178,-90 450.178,-96 450.178,-96 450.178,-198 450.178,-198 450.178,-204 444.178,-210 438.178,-210 438.178,-210 328.178,-210 328.178,-210 322.178,-210 316.178,-204 316.178,-198 316.178,-198 316.178,-96 316.178,-96 316.178,-90 322.178,-84 328.178,-84"/>
<text text-anchor="middle" x="383.178" y="-197.2" font-family="Times New Roman,serif" font-size="11.00" fill="gray">Controller</text>
</g>
<g id="clust8" class="cluster"><title>cluster_\NO\NTNU\IMT2571\Assignment1\View</title>
<path fill="none" stroke="gray" d="M88.0888,-218C88.0888,-218 428.178,-218 428.178,-218 434.178,-218 440.178,-224 440.178,-230 440.178,-230 440.178,-386 440.178,-386 440.178,-392 434.178,-398 428.178,-398 428.178,-398 88.0888,-398 88.0888,-398 82.0888,-398 76.0888,-392 76.0888,-386 76.0888,-386 76.0888,-230 76.0888,-230 76.0888,-224 82.0888,-218 88.0888,-218"/>
<text text-anchor="middle" x="258.133" y="-385.2" font-family="Times New Roman,serif" font-size="11.00" fill="gray">View</text>
</g>
<!-- \\NO\\NTNU\\IMT2571\\Assignment1\\Model\\DBModelTest -->
<g id="node1" class="node"><title>\\NO\\NTNU\\IMT2571\\Assignment1\\Model\\DBModelTest</title>
<polygon fill="none" stroke="black" points="428.678,-450 337.678,-450 337.678,-414 428.678,-414 428.678,-450"/>
<text text-anchor="middle" x="383.178" y="-429.2" font-family="Courier,monospace" font-size="11.00">DBModelTest</text>
</g>
<!-- \\PHPUnit\\Framework\\TestCase -->
<g id="node12" class="node"><title>\\PHPUnit\\Framework\\TestCase</title>
<ellipse fill="none" stroke="black" cx="126.089" cy="-18" rx="126.178" ry="18"/>
<text text-anchor="middle" x="126.089" y="-14.3" font-family="Times New Roman,serif" font-size="14.00" fill="gray">\PHPUnit\Framework\TestCase</text>
</g>
<!-- \\NO\\NTNU\\IMT2571\\Assignment1\\Model\\DBModelTest&#45;&gt;\\PHPUnit\\Framework\\TestCase -->
<g id="edge1" class="edge"><title>\\NO\\NTNU\\IMT2571\\Assignment1\\Model\\DBModelTest&#45;&gt;\\PHPUnit\\Framework\\TestCase</title>
<path fill="none" stroke="black" d="M337.652,-417.843C329.709,-413.731 322.093,-408.529 316.178,-402 256.914,-336.59 290.417,-293.551 252.178,-214 221.254,-149.668 173.37,-80.6961 146.709,-44.1868"/>
<polygon fill="none" stroke="black" points="149.47,-42.0335 140.726,-36.0511 143.831,-46.1807 149.47,-42.0335"/>
</g>
<!-- \\NO\\NTNU\\IMT2571\\Assignment1\\Model\\Book -->
<g id="node2" class="node"><title>\\NO\\NTNU\\IMT2571\\Assignment1\\Model\\Book</title>
<polygon fill="none" stroke="black" points="410.178,-558 356.178,-558 356.178,-522 410.178,-522 410.178,-558"/>
<text text-anchor="middle" x="383.178" y="-537.2" font-family="Courier,monospace" font-size="11.00">Book</text>
</g>
<!-- \\NO\\NTNU\\IMT2571\\Assignment1\\Model\\AbstractModel -->
<g id="node3" class="node"><title>\\NO\\NTNU\\IMT2571\\Assignment1\\Model\\AbstractModel</title>
<polygon fill="none" stroke="black" points="178.089,-558 74.0888,-558 74.0888,-522 178.089,-522 178.089,-558"/>
<text text-anchor="start" x="92.0888" y="-543.2" font-family="Courier,monospace" font-size="11.00">«abstract»</text>
<text text-anchor="start" x="82.0888" y="-531.2" font-family="Courier,monospace" font-size="11.00">AbstractModel</text>
</g>
<!-- \\NO\\NTNU\\IMT2571\\Assignment1\\Model\\DBModel -->
<g id="node4" class="node"><title>\\NO\\NTNU\\IMT2571\\Assignment1\\Model\\DBModel</title>
<polygon fill="none" stroke="black" points="415.178,-612 351.178,-612 351.178,-576 415.178,-576 415.178,-612"/>
<text text-anchor="middle" x="383.178" y="-591.2" font-family="Courier,monospace" font-size="11.00">DBModel</text>
</g>
<!-- \\NO\\NTNU\\IMT2571\\Assignment1\\Model\\DBModel&#45;&gt;\\NO\\NTNU\\IMT2571\\Assignment1\\Model\\AbstractModel -->
<g id="edge3" class="edge"><title>\\NO\\NTNU\\IMT2571\\Assignment1\\Model\\DBModel&#45;&gt;\\NO\\NTNU\\IMT2571\\Assignment1\\Model\\AbstractModel</title>
<path fill="none" stroke="black" d="M351.154,-587.433C310.823,-578.895 239.484,-563.793 188.123,-552.92"/>
<polygon fill="none" stroke="black" points="188.641,-549.452 178.133,-550.806 187.191,-556.301 188.641,-549.452"/>
</g>
<!-- \\NO\\NTNU\\IMT2571\\Assignment1\\Model\\Model -->
<g id="node5" class="node"><title>\\NO\\NTNU\\IMT2571\\Assignment1\\Model\\Model</title>
<polygon fill="none" stroke="black" points="410.178,-504 356.178,-504 356.178,-468 410.178,-468 410.178,-504"/>
<text text-anchor="middle" x="383.178" y="-483.2" font-family="Courier,monospace" font-size="11.00">Model</text>
</g>
<!-- \\NO\\NTNU\\IMT2571\\Assignment1\\Model\\Model&#45;&gt;\\NO\\NTNU\\IMT2571\\Assignment1\\Model\\AbstractModel -->
<g id="edge4" class="edge"><title>\\NO\\NTNU\\IMT2571\\Assignment1\\Model\\Model&#45;&gt;\\NO\\NTNU\\IMT2571\\Assignment1\\Model\\AbstractModel</title>
<path fill="none" stroke="black" d="M355.839,-491.576C316.615,-499.879 241.749,-515.728 188.349,-527.032"/>
<polygon fill="none" stroke="black" points="187.366,-523.662 178.307,-529.158 188.815,-530.511 187.366,-523.662"/>
</g>
<!-- \\NO\\NTNU\\IMT2571\\Assignment1\\Controller\\FunctionalTests -->
<g id="node6" class="node"><title>\\NO\\NTNU\\IMT2571\\Assignment1\\Controller\\FunctionalTests</title>
<polygon fill="none" stroke="black" points="442.178,-182 324.178,-182 324.178,-146 442.178,-146 442.178,-182"/>
<text text-anchor="middle" x="383.178" y="-161.2" font-family="Courier,monospace" font-size="11.00">FunctionalTests</text>
</g>
<!-- \\NO\\NTNU\\IMT2571\\Assignment1\\Controller\\FunctionalTests&#45;&gt;\\PHPUnit\\Framework\\TestCase -->
<g id="edge2" class="edge"><title>\\NO\\NTNU\\IMT2571\\Assignment1\\Controller\\FunctionalTests&#45;&gt;\\PHPUnit\\Framework\\TestCase</title>
<path fill="none" stroke="black" d="M335.206,-145.963C328.733,-143.136 322.233,-140.114 316.178,-137 259.496,-107.849 197.671,-67.09 160.66,-41.6364"/>
<polygon fill="none" stroke="black" points="162.469,-38.6318 152.253,-35.8236 158.488,-44.3896 162.469,-38.6318"/>
</g>
<!-- \\NO\\NTNU\\IMT2571\\Assignment1\\Controller\\Controller -->
<g id="node7" class="node"><title>\\NO\\NTNU\\IMT2571\\Assignment1\\Controller\\Controller</title>
<polygon fill="none" stroke="black" points="425.178,-128 341.178,-128 341.178,-92 425.178,-92 425.178,-128"/>
<text text-anchor="middle" x="383.178" y="-107.2" font-family="Courier,monospace" font-size="11.00">Controller</text>
</g>
<!-- \\NO\\NTNU\\IMT2571\\Assignment1\\View\\BookListView -->
<g id="node8" class="node"><title>\\NO\\NTNU\\IMT2571\\Assignment1\\View\\BookListView</title>
<polygon fill="none" stroke="black" points="432.178,-370 334.178,-370 334.178,-334 432.178,-334 432.178,-370"/>
<text text-anchor="middle" x="383.178" y="-349.2" font-family="Courier,monospace" font-size="11.00">BookListView</text>
</g>
<!-- \\NO\\NTNU\\IMT2571\\Assignment1\\View\\View -->
<g id="node11" class="node"><title>\\NO\\NTNU\\IMT2571\\Assignment1\\View\\View</title>
<polygon fill="none" stroke="black" points="168.089,-316 84.0888,-316 84.0888,-280 168.089,-280 168.089,-316"/>
<text text-anchor="start" x="92.0888" y="-301.2" font-family="Courier,monospace" font-size="11.00">«abstract»</text>
<text text-anchor="start" x="112.089" y="-289.2" font-family="Courier,monospace" font-size="11.00">View</text>
</g>
<!-- \\NO\\NTNU\\IMT2571\\Assignment1\\View\\BookListView&#45;&gt;\\NO\\NTNU\\IMT2571\\Assignment1\\View\\View -->
<g id="edge5" class="edge"><title>\\NO\\NTNU\\IMT2571\\Assignment1\\View\\BookListView&#45;&gt;\\NO\\NTNU\\IMT2571\\Assignment1\\View\\View</title>
<path fill="none" stroke="black" d="M333.897,-341.78C289.45,-332.37 223.724,-318.457 178.354,-308.852"/>
<polygon fill="none" stroke="black" points="178.935,-305.398 168.427,-306.751 177.485,-312.246 178.935,-305.398"/>
</g>
<!-- \\NO\\NTNU\\IMT2571\\Assignment1\\View\\BookView -->
<g id="node9" class="node"><title>\\NO\\NTNU\\IMT2571\\Assignment1\\View\\BookView</title>
<polygon fill="none" stroke="black" points="418.678,-316 347.678,-316 347.678,-280 418.678,-280 418.678,-316"/>
<text text-anchor="middle" x="383.178" y="-295.2" font-family="Courier,monospace" font-size="11.00">BookView</text>
</g>
<!-- \\NO\\NTNU\\IMT2571\\Assignment1\\View\\BookView&#45;&gt;\\NO\\NTNU\\IMT2571\\Assignment1\\View\\View -->
<g id="edge6" class="edge"><title>\\NO\\NTNU\\IMT2571\\Assignment1\\View\\BookView&#45;&gt;\\NO\\NTNU\\IMT2571\\Assignment1\\View\\View</title>
<path fill="none" stroke="black" d="M347.51,-298C303.924,-298 228.735,-298 178.462,-298"/>
<polygon fill="none" stroke="black" points="178.444,-294.5 168.444,-298 178.444,-301.5 178.444,-294.5"/>
</g>
<!-- \\NO\\NTNU\\IMT2571\\Assignment1\\View\\ErrorView -->
<g id="node10" class="node"><title>\\NO\\NTNU\\IMT2571\\Assignment1\\View\\ErrorView</title>
<polygon fill="none" stroke="black" points="421.678,-262 344.678,-262 344.678,-226 421.678,-226 421.678,-262"/>
<text text-anchor="middle" x="383.178" y="-241.2" font-family="Courier,monospace" font-size="11.00">ErrorView</text>
</g>
<!-- \\NO\\NTNU\\IMT2571\\Assignment1\\View\\ErrorView&#45;&gt;\\NO\\NTNU\\IMT2571\\Assignment1\\View\\View -->
<g id="edge7" class="edge"><title>\\NO\\NTNU\\IMT2571\\Assignment1\\View\\ErrorView&#45;&gt;\\NO\\NTNU\\IMT2571\\Assignment1\\View\\View</title>
<path fill="none" stroke="black" d="M344.538,-251.968C300.455,-261.3 227.218,-276.803 178.066,-287.208"/>
<polygon fill="none" stroke="black" points="177.326,-283.788 168.268,-289.283 178.776,-290.636 177.326,-283.788"/>
</g>
</g>
</svg>
